<?xml version="1.0" encoding="utf-8"?>
<!-- Generator: Adobe Illustrator 16.0.0, SVG Export Plug-In . SVG Version: 6.00 Build 0)  -->
<!DOCTYPE svg PUBLIC "-//W3C//DTD SVG 1.1//EN" "http://www.w3.org/Graphics/SVG/1.1/DTD/svg11.dtd">
<svg version="1.1" id="Layer_1" xmlns="http://www.w3.org/2000/svg" xmlns:xlink="http://www.w3.org/1999/xlink" x="0px" y="0px"
	 width="984.484px" height="116.488px" viewBox="0 0 984.484 116.488" enable-background="new 0 0 984.484 116.488"
	 xml:space="preserve">
<g id="Layer_x0020_1">
	<path fill="#2CB3E1" d="M0.048,114.76V2.016h27.718c21.814,0,38.445,4.608,49.964,13.896c11.52,9.215,17.279,23.398,17.279,42.621
		c0,17.999-5.328,31.821-16.055,41.612c-10.655,9.721-26.063,14.615-46.149,14.615H0.048z M14.807,102.305h18.791
		c15.047,0,26.494-3.815,34.198-11.447c7.703-7.559,11.591-18.358,11.591-32.325c0-14.975-4.175-26.063-12.383-33.262
		c-8.208-7.2-20.879-10.799-37.87-10.799H14.807V102.305z M120.496,114.76V2.016h14.759V114.76H120.496z M215.601,116.488
		c-12.095,0-22.534-2.305-31.102-6.984c-8.64-4.68-15.119-11.23-19.439-19.654c-4.32-8.352-6.479-18.215-6.479-29.59
		c0-11.591,2.448-21.958,7.344-31.03c4.896-9.144,11.735-16.343,20.662-21.455C195.442,2.592,205.594,0,216.897,0
		c14.615,0,26.999,3.816,37.149,11.303l-5.976,10.295c-8.927-6.048-19.223-9.144-30.814-9.144c-8.567,0-16.199,2.088-22.75,6.12
		c-6.624,4.104-11.735,9.719-15.263,16.847c-3.528,7.2-5.256,15.263-5.256,24.19c0,13.535,3.6,24.335,10.799,32.326
		c7.2,8.063,17.711,12.096,31.462,12.096c9.359,0,17.567-1.368,24.623-4.032V68.107h-28.51V55.436h43.197v52.845
		C243.607,113.752,230.288,116.488,215.601,116.488z M285.437,114.76V2.016h14.759V114.76H285.437z"/>
	<path fill="#848688" d="M378.958,116.488c-7.487,0-14.543-1.225-21.238-3.744c-6.624-2.52-12.527-6.119-17.639-10.799
		c-5.111-4.68-9.143-10.655-12.167-17.999c-2.952-7.271-4.464-15.551-4.464-24.622c0-8.784,1.44-16.919,4.248-24.334
		c2.808-7.488,6.624-13.751,11.519-18.863c4.968-5.04,10.799-9,17.495-11.879C363.479,1.44,370.679,0,378.454,0
		c14.183,0,25.99,3.888,35.422,11.663l-5.832,10.007c-8.352-6.12-17.854-9.215-28.51-9.215c-8.063,0-15.191,2.088-21.383,6.191
		c-6.191,4.104-10.943,9.647-14.255,16.775c-3.24,7.056-4.896,14.975-4.896,23.758c0,13.68,3.815,24.551,11.375,32.686
		c7.56,8.064,17.351,12.168,29.302,12.168c11.375,0,21.958-3.744,31.894-11.16l4.967,11.736
		C405.74,112.528,393.213,116.488,378.958,116.488z M439.218,114.76V2.016h14.831v48.741h59.9V2.016h14.687V114.76h-14.615V63.212
		h-59.972v51.548H439.218z M578.169,72.571h39.813c-6.551-18.503-13.103-36.862-19.798-55.077
		C591.487,35.926,584.792,54.284,578.169,72.571z M546.707,114.76L590.408,2.016h15.838l43.989,112.744h-16.198l-11.592-30.094
		h-48.236l-11.447,30.094H546.707z M668.307,114.76V2.016h17.998c1.225,3.024,7.056,16.271,17.424,39.813
		c10.295,23.471,18.07,41.47,23.398,53.853c5.327-12.455,13.246-30.454,23.614-53.924C761.18,18.287,767.012,5.04,768.38,2.016
		h17.566V114.76h-14.11V26.134c-5.04,11.663-12.384,28.294-22.104,49.893c-9.719,21.598-15.479,34.557-17.278,38.732h-10.655
		l-33.406-75.307l-5.831-13.967v89.273H668.307z M832.023,51.188h20.519c8.928,0,15.551-1.296,19.87-4.032
		c4.248-2.664,6.408-7.416,6.408-14.183c0-2.52-0.288-4.751-0.792-6.695c-0.504-1.872-1.296-3.6-2.448-4.968
		c-1.08-1.296-2.376-2.448-3.815-3.384c-1.512-0.936-3.312-1.584-5.472-2.088c-2.088-0.504-4.392-0.792-6.695-1.008
		c-2.376-0.216-5.112-0.36-8.208-0.36c-0.071,0-0.216,0-0.288,0c-0.144,0-0.216,0-0.287,0c-0.072,0-0.145,0-0.288,0
		c-0.072,0-0.145,0-0.288,0c-0.072,0-0.145,0-0.216,0h-17.999V51.188z M817.265,114.76V2.016h32.397
		c5.688,0,10.655,0.216,14.831,0.72c4.248,0.432,8.279,1.368,12.167,2.664c3.888,1.368,6.983,3.168,9.432,5.4
		c2.376,2.232,4.248,5.255,5.688,8.927c1.439,3.744,2.16,8.136,2.16,13.175c0,5.688-0.937,10.583-2.809,14.543
		c-1.871,4.032-4.607,7.271-8.207,9.575c-3.672,2.304-7.991,4.032-12.887,5.04c-4.896,1.08-10.655,1.584-17.207,1.584h-20.807
		v51.116H817.265z M945.632,104.033c3.096,0,5.903-0.288,8.423-0.864c2.521-0.576,4.68-1.368,6.552-2.448s3.456-2.375,4.68-3.959
		s2.231-3.384,2.808-5.4c0.648-2.016,0.937-4.319,0.937-6.768c0-2.663-0.288-4.967-0.864-6.768c-0.504-1.871-1.656-3.6-3.24-5.255
		c-1.583-1.656-3.743-3.097-6.551-4.464c-2.736-1.296-6.408-2.664-10.943-4.031c-0.432-0.145-1.584-0.504-3.384-1.008
		c-1.8-0.433-2.952-0.793-3.528-1.009c-10.799-3.096-18.646-7.055-23.542-11.807c-4.968-4.751-7.415-11.591-7.415-20.519
		c0-6.335,1.655-11.807,4.967-16.343c3.313-4.536,7.704-7.919,13.248-10.08C933.32,1.08,939.729,0,947,0
		c15.19,0,26.781,3.96,34.773,11.735l-7.344,10.007c-2.664-2.52-6.264-4.752-10.728-6.552s-9.503-2.736-14.975-2.736
		c-7.056,0-12.815,1.44-17.063,4.248c-4.247,2.879-6.407,7.055-6.407,12.599c0,3.672,0.504,6.624,1.512,8.855
		c1.009,2.16,2.88,4.032,5.544,5.616s6.623,3.24,12.023,4.968c0.072,0,1.08,0.36,2.88,0.864c1.872,0.504,3.096,0.792,3.671,0.936
		c6.624,2.016,12.096,4.032,16.344,6.192c4.247,2.088,7.631,4.535,10.223,7.271c2.592,2.808,4.392,5.832,5.472,9.143
		c1.008,3.313,1.513,7.271,1.513,11.88c0,5.255-1.009,9.863-2.952,13.896c-2.017,4.104-4.752,7.415-8.279,9.863
		c-3.456,2.592-7.487,4.463-12.023,5.759c-4.607,1.296-9.575,1.944-14.903,1.944c-8.423,0-15.982-1.368-22.606-4.104
		c-6.623-2.809-11.447-5.688-14.471-8.568l6.552-10.727c3.312,2.664,7.631,5.111,13.031,7.416
		C934.112,102.881,939.729,104.033,945.632,104.033z"/>
</g>
</svg>
