<?xml version="1.0" encoding="UTF-8"?>
<!DOCTYPE svg PUBLIC "-//W3C//DTD SVG 1.1//EN" "http://www.w3.org/Graphics/SVG/1.1/DTD/svg11.dtd">
<!-- Creator: CorelDRAW 2019 (64-Bit) -->
<svg xmlns="http://www.w3.org/2000/svg" xml:space="preserve" width="159.343mm" height="74.5184mm" version="1.1" style="shape-rendering:geometricPrecision; text-rendering:geometricPrecision; image-rendering:optimizeQuality; fill-rule:evenodd; clip-rule:evenodd"
viewBox="0 0 15934.26 7451.84"
 xmlns:xlink="http://www.w3.org/1999/xlink">
 <defs>
  <font id="FontID0" horiz-adv-x="666" font-variant="normal" style="fill-rule:nonzero" font-weight="400">
	<font-face 
		font-family="Arial Unicode MS">
		<font-face-src>
			<font-face-name name="Arial Unicode MS"/>
		</font-face-src>
	</font-face>
   <missing-glyph><path d="M0 0z"/></missing-glyph>
   <glyph unicode="A" horiz-adv-x="666" d="M668.002 0l-107.001 0 -83.9995 217.831 -298.834 0 -79.0028 -217.831 -100.168 0 275.005 715.834 101.998 0 292.001 -715.834zm-219.667 292.998c-58.67,155.003 -91.6704,242.838 -99.1713,263.833 -7.49503,21.0013 -15.8287,49.1693 -24.9952,84.3337l-2.33413 0c-9.16646,-48.1664 -21.3356,-92.8316 -36.6658,-133.831l-80.1698 -214.336 243.336 0z"/>
   <glyph unicode="E" horiz-adv-x="666" d="M613.836 0l-534.669 0 0 715.834 518.002 0 0 -85.0023 -423.334 0 0 -218.664 395.999 0 0 -85.0023 -395.999 0 0 -242.163 440.002 0 0 -85.0023z"/>
   <glyph unicode="G" horiz-adv-x="777" d="M713.834 100.168c-90.1691,-75.0031 -188.836,-112.337 -295.837,-112.337 -109.663,0 -198.167,33.3347 -265.329,100.338 -67.338,66.8336 -100.837,155.83 -100.837,266.83 0,67.6664 13.6705,130.835 41.1699,189.164 27.4994,58.4999 68.0007,103.67 121.662,135.837 53.5033,31.9976 119.006,47.9963 196.501,47.9963 80.3341,0 144.834,-17.6643 193.504,-52.9989 48.6649,-35.3345 81.4953,-88.1634 98.4969,-158.832l-85.0023 -23.9982c-13.3304,51.4975 -37.3285,90.1632 -71.8303,115.997 -34.5018,25.8338 -79.5013,38.8357 -135.169,38.8357 -86.3336,0 -151.332,-26.3323 -195.334,-79.167 -43.9966,-52.6646 -65.995,-121.668 -65.995,-206.999 0,-63.8368 10.6619,-116.836 31.9976,-159.167 21.3356,-42.3369 52.9989,-74.3345 94.8315,-95.9985 41.8326,-21.6699 87.3364,-32.3377 136.5,-32.3377 74.833,0 144.499,24.5025 208.835,73.6659l0 132.834 -210.834 0 0 85.3366 302.669 0 0 -265z"/>
   <glyph unicode="I" horiz-adv-x="277" d="M187 0l-95.1658 0 0 715.834 95.1658 0 0 -715.834z"/>
   <glyph unicode="L" horiz-adv-x="556" d="M522.998 0l-447.831 0 0 715.834 94.8315 0 0 -630.832 352.999 0 0 -85.0023z"/>
   <glyph unicode="N" horiz-adv-x="722" d="M642.168 0l-97.1656 0 -374.171 561.998 -1.82977 0 0 -561.998 -89.8348 0 0 715.834 96.6671 0 374.001 -561.998 1.99985 0 0 561.998 90.3333 0 0 -715.834z"/>
   <glyph unicode="P" horiz-adv-x="666" d="M77.1671 715.834l269.997 0c42.6712,0 79.3371,-2.16992 110.168,-6.33383 30.6663,-4.33398 59.3327,-15.166 85.6709,-33.0004 26.3323,-17.6643 46.3308,-41.8326 59.8312,-72.1646 13.5004,-30.5021 20.1686,-62.3354 20.1686,-95.5 0,-66.1709 -21.1714,-119.17 -63.6667,-159.003 -42.5012,-39.8327 -110.672,-59.8312 -204.336,-59.8312l-183.165 0 0 -290.001 -94.6673 0 0 715.834zm94.6673 -340.836l184.168 0c112.666,0 168.832,43.6682 168.832,130.835 0,28.6664 -7.33668,54.0017 -21.8341,76.0001 -14.6675,21.9983 -32.6661,35.6688 -54.0017,40.9998 -21.3298,5.33684 -52.9989,7.99939 -94.9957,7.99939l-182.168 0 0 -255.834z"/>
   <glyph unicode="R" horiz-adv-x="722" d="M711.002 0l-119.17 0c-71.3318,112.666 -115.663,181.834 -132.834,207.497 -17.3301,25.6696 -35.3287,47.838 -54.4944,66.1709 -19.0015,18.3329 -36.8359,29.9977 -53.6675,35.0003 -16.8374,4.83248 -39,7.33082 -66.6694,7.33082l-109.335 0 0 -315.999 -94.8315 0 0 715.834 317.002 0c43.3339,0 79.4954,-2.83263 108.83,-8.33368 29.335,-5.50105 54.9987,-17.1658 77.1671,-34.8361 22.1684,-17.8286 39.17,-40.167 50.999,-67.162 11.9991,-27.0009 17.8344,-55.5031 17.8344,-85.5008 0,-54.0017 -17.0016,-97.4999 -51.1691,-130.336 -34.3317,-32.8303 -83.9995,-53.6675 -149.496,-62.4996l0 -1.99985c47.8321,-21.1655 92.8316,-64.6637 134.834,-130.33l124.999 -194.836zm-536.17 400.832l203.169 0c40.9998,0 73.5017,3.5012 97.3357,10.5036 23.9982,6.99653 42.9997,20.667 57.3329,40.8297 14.3332,20.1686 21.4998,42.8354 21.4998,67.8365 0,32.4961 -11.8349,60.1655 -35.6688,82.9966 -23.6639,22.837 -62.9981,34.1675 -117.668,34.1675l-226 0 0 -236.334z"/>
  </font>
  <style type="text/css">
   <![CDATA[
    @font-face { font-family:"Arial Unicode MS";font-variant:normal;font-weight:normal;src:url("#FontID0") format(svg)}
    .fil10 {fill:#2B2A29}
    .fil6 {fill:#2DB4F8}
    .fil5 {fill:#52A9DE}
    .fil3 {fill:#9BE164}
    .fil1 {fill:#9D9E9E}
    .fil2 {fill:#AFCF8E}
    .fil8 {fill:#DD6169}
    .fil9 {fill:#E31E24}
    .fil4 {fill:#E7CA8E}
    .fil7 {fill:#FFBE40}
    .fil0 {fill:white}
    .fnt0 {font-weight:normal;font-size:1705.13px;font-family:'Arial Unicode MS'}
   ]]>
  </style>
 </defs>
 <g id="Layer_x0020_1">
  <metadata id="CorelCorpID_0Corel-Layer"/>
  <rect class="fil0" y="7.86" width="15934.26" height="7451.85"/>
  <g id="_1443282042608">
   <g>
    <rect class="fil1" transform="matrix(3.70606 -3.48088 3.48088 3.70606 1630.86 1674.54)" width="43" height="334.04"/>
    <rect class="fil1" transform="matrix(-0.931044 -4.99845 4.99845 -0.931044 4399.84 3073.85)" width="43" height="334.04"/>
    <rect class="fil1" transform="matrix(-4.60676 -2.15154 2.15154 -4.60676 2355.23 5535.68)" width="43" height="334.04"/>
    <circle class="fil2" cx="1026.49" cy="1034.35" r="1026.5"/>
    <ellipse class="fil3" cx="1026.49" cy="1034.35" rx="859.67" ry="859.68"/>
    <circle class="fil4" cx="6173.27" cy="2544.79" r="603.72"/>
    <circle class="fil5" cx="3390.38" cy="3327.33" r="1308.56"/>
    <ellipse class="fil6" cx="3390.38" cy="3327.33" rx="1095.89" ry="1095.9"/>
    <ellipse class="fil7" cx="6173.27" cy="2544.79" rx="505.6" ry="505.61"/>
    <circle class="fil8" cx="1965.56" cy="5831.41" r="839.38"/>
    <circle class="fil9" cx="1965.56" cy="5831.41" r="702.98"/>
   </g>
   <text x="3406.38" y="7438.99"  class="fil10 fnt0">LEARNING APP</text>
   <g>
    <path class="fil9" d="M8484.77 2053.96c630.28,0 1141.18,810.68 1141.18,1810.67 0,1000 -510.9,1810.67 -1141.18,1810.67 -630.24,0 -1141.15,-810.67 -1141.15,-1810.67 0,-999.99 510.91,-1810.67 1141.15,-1810.67zm0 938.9c217.47,0 393.72,390.31 393.72,871.77 0,481.46 -176.25,871.78 -393.72,871.78 -217.48,0 -393.72,-390.32 -393.72,-871.78 0,-481.46 176.24,-871.77 393.72,-871.77z"/>
    <path class="fil9" d="M10013.83 2506.48c-73.98,1200.26 -175.05,1759.24 38.05,2967.04 1357.65,384.89 2677.47,-1480.25 2092.18,-2837.71 -355.67,-739.1 -1736.64,-807.18 -2130.23,-129.33zm725.61 662.26c-25.62,565.6 -60.68,828.99 13.26,1398.09 470.87,181.31 928.58,-697.46 725.61,-1337.13 -123.34,-348.22 -602.32,-380.33 -738.87,-60.96z"/>
    <path class="fil9" d="M14169.44 5546.94c95.28,-92.48 614.55,-650.48 745.67,-1941.15 0,0 121.73,1597.34 395.6,1962.81 0,0 365.16,448.93 479.3,-905.31 0,0 22.82,-2366.05 -585.79,-2571.47 0,0 -623.89,-327.15 -1034.68,1498.75l-0.1 -0.33 0 1956.7zm-0.04 0c-95.28,-92.48 -614.56,-650.48 -745.68,-1941.15 0,0 -121.73,1597.34 -395.6,1962.81 0,0 -365.16,448.93 -479.29,-905.31 0,0 -22.82,-2366.05 585.79,-2571.47 0,0 623.9,-327.15 1034.69,1498.75l0.09 -0.33 0 1956.7z"/>
   </g>
  </g>
 </g>
</svg>
